{
  "project_info": {
    "project_number": "611812132249",
    "project_id": "data-lucent-1-57b33",
    "storage_bucket": "data-lucent-1-57b33.appspot.com"
  },
  "client": [
    {
      "client_info": {
        "mobilesdk_app_id": "1:611812132249:android:ab06a68183510f30557f08",
        "android_client_info": {
          "package_name": "com.datalucent.data_lucent"
        }
      },
      "oauth_client": [
        {
          "client_id": "611812132249-o3g8n7m5tus8ab2u5vs98vpmhf1hs048.apps.googleusercontent.com",
          "client_type": 1,
          "android_info": {
            "package_name": "com.datalucent.data_lucent",
            "certificate_hash": "85289eb7a489cc0d4900641496bf54b5b94e81ca"
          }
        },
        {
          "client_id": "611812132249-93ac1a8434t1jj57iev0pr64bskjh3qi.apps.googleusercontent.com",
          "client_type": 3
        }
      ],
      "api_key": [
        {
          "current_key": "AIzaSyDQQn0w_Z1UVmyMDVAUb81TK_TAuQNItAI"
        }
      ],
      "services": {
        "appinvite_service": {
          "other_platform_oauth_client": [
            {
              "client_id": "611812132249-93ac1a8434t1jj57iev0pr64bskjh3qi.apps.googleusercontent.com",
              "client_type": 3
            },
            {
              "client_id": "611812132249-8ibnp1ttg3htovmalsq5c1lmudcpaj96.apps.googleusercontent.com",
              "client_type": 2,
              "ios_info": {
                "bundle_id": "com.datalucent.app1"
              }
            }
          ]
        }
      }
    }
  ],
  "configuration_version": "1"
}