<?xml version="1.0" encoding="utf-8"?>
<!-- Generator: Adobe Illustrator 25.2.0, SVG Export Plug-In . SVG Version: 6.00 Build 0)  -->
<svg version="1.1" id="Capa_1" xmlns:xodm="http://www.corel.com/coreldraw/odm/2003"
	 xmlns="http://www.w3.org/2000/svg" xmlns:xlink="http://www.w3.org/1999/xlink" x="0px" y="0px" viewBox="0 0 299 374.4"
	 style="enable-background:new 0 0 299 374.4;" xml:space="preserve">
<g>
	<path d="M44.9,92.2c-1.6,0.2-3.2,6.2-6.4,9.2c-2.3,2.2-5.2,2.1-6.8,4.8c-0.6,1-0.4,2.8-1,4.5c-1.3,3.4-5.9,3.7-5.9,7.3
		c0,4,3.8,4.7,7.1,7.5c2.6,2.3,2.8,3.8,6,4.9c2.7,0.9,6.7-2,10.2-1c2.9,0.9,5.8,1.4,6.4,4.4c0.6,2.7-0.1,6.9-3.6,6.5
		c-1.2-0.1-6.4-1.8-12.8-1.2c-7.7,0.9-16.6,3.3-17.4,11.8c-0.5,4.7,5.5,10.3,11.2,9.1c4-0.8,2.1-5.4,4.3-7.6
		c2.8-2.8,18.9,10,33.9,10c6.3,0,11-1.6,15.6-6.3c0.4-0.4,1-1.1,1.6-1.2c0.6,0.1,1.7,0.7,2.1,0.9c12,9.5,21.1,28.5,65.4,28.7
		c6.2,0,13.3,2.9,19.1,8.1c5.2,4.6,8.2,11.9,11.1,19.3c4.4,11,12.4,21.8,24.4,33.8c0.7,0.7,10.6,8.2,11.3,8.8
		c0.1,0.1,0.9,1.8,0.6,2.7c-0.3,7.2-1.3,28.1,14.5,29c3.9,0.2,2.9-2.5,2.9-4.3c0-3.6-0.7-7.2,1.3-11c2.7-5.1-5.7-7.5-5.4-18.5
		c0.2-8.2-6.9-6.9-10.5-13.1c-2.1-3.7-3.9-5.6-3.8-10c0.8-25.1-5.5-41.6-8.6-45.6c-2.4-3.1-4.5-4.3-2.2-5.7
		c13.3-8.6,16.3-16.6,16.3-16.6c7.1-16.2,13.4-31.1,22.2-37.6c1.8-1.3,6.3-4.6,9.1-6c8.2-3.7,12.5-6,14.9-8.3
		c3.7-3.6,6.7-11.1,3.1-15.6c-4.5-5.6-12.2-1.2-15.6,0.8c-24.4,14.2-28,39.2-36.5,53.5c-6.7,11.5-17.7,19.9-27.5,20.6
		c-7.3,0.5-15.3-0.9-23.2-4.3c-19.2-8.2-29.7-18.9-32.2-20.7c-5.2-3.9-45.2-42.3-77.6-43.9c0,0-4-7.9-5-8c-2.4-0.3-4.8,4.7-6.5,5.3
		C49.4,97.9,46.6,91.9,44.9,92.2L44.9,92.2z"/>
</g>
</svg>
